R Exercises - Spectroscopic data - Solution
…
Initialize an empty tibble called spec that will store all spectra:

library(tidyverse)
spec   <- tibble()

Using a for loop, load each file in flist and store them into spec by making it tidy.

for(file in flist){
    d <- read_table(file.path("Data",file), col_names = c("w","int"))
    d$name <- file
    spec <- bind_rows(spec,d)
}
spec

# A tibble: 17,255 × 3
       w   int name        
   <dbl> <dbl> <chr>       
 1 3064.  43.9 rubis_01.txt
 2 3064.  47.9 rubis_01.txt
 3 3064.  44.5 rubis_01.txt
 4 3065.  50.5 rubis_01.txt
 5 3065.  50.5 rubis_01.txt
 6 3065.  44.5 rubis_01.txt
 7 3065.  44.9 rubis_01.txt
 8 3066.  39.9 rubis_01.txt
 9 3066.  49.5 rubis_01.txt
10 3066.  48.9 rubis_01.txt
# ℹ 17,245 more rows
…
