R Exercises - Spectroscopic data - Solution
…
##  [1] 0.0000000 0.1111111 0.2222222 0.3333333 0.4444444 0.5555556 0.6666667
##  [8] 0.7777778 0.8888889 1.0000000

Normalize all columns of FTIR intensity to [0,1]

# First, let's make the tibble tidy
df_tidy <- df %>% pivot_longer(cols=-w,
                    names_to="rock",
                    values_to="intensity")
df_tidy

## # A tibble: 14,154 x 3
##        w rock  intensity
##    <dbl> <chr>     <dbl>
##  1 5199. r1      0.00566
##  2 5199. r2      0.00225
##  3 5199. r3      0.0346 
##  4 5198. r1      0.00568
##  5 5198. r2      0.00191
##  6 5198. r3      0.0346 
##  7 5197. r1      0.00570
##  8 5197. r2      0.00186
##  9 5197. r3      0.0346 
## 10 5196. r1      0.00581
## #  with 14,144 more rows

# now add the new column 'intensity_n' containing the normalized intensities
df_tidy <- df_tidy %>% 
    group_by(rock) %>%
    mutate(intensity_n = norm01(intensity))
df_tidy

## # A tibble: 14,154 x 4
## # Groups:   rock [3]
##        w rock  intensity intensity_n
##    <dbl> <chr>     <dbl>       <dbl>
##  1 5199. r1      0.00566     0.00687
##  2 5199. r2      0.00225     0.00517
##  3 5199. r3      0.0346      0.0385 
##  4 5198. r1      0.00568     0.00689
##  5 5198. r2      0.00191     0.00437
##  6 5198. r3      0.0346      0.0385 
##  7 5197. r1      0.00570     0.00691
##  8 5197. r2      0.00186     0.00427
##  9 5197. r3      0.0346      0.0385 
## 10 5196. r1      0.00581     0.00705
## #  with 14,144 more rows
…
spec   <- tibble()
maxpos <- tibble(name=flist, max=NA)

Using a for loop, load each file in flist and store them into spec by making it tidy, and store the position of the maximum of each spectrum in maxpos

for(file in flist){
    d <- read_table(file.path("Data",file), col_names = c("w","int"))
    d$name <- file
    maxpos$max[file==flist] <- d$w[which.max(d$int)]
    spec <- bind_rows(spec,d)
}
spec

## # A tibble: 17,255 x 3
##        w   int name        
##    <dbl> <dbl> <chr>       
##  1 3064.  43.9 rubis_01.txt
##  2 3064.  47.9 rubis_01.txt
##  3 3064.  44.5 rubis_01.txt
##  4 3065.  50.5 rubis_01.txt
##  5 3065.  50.5 rubis_01.txt
##  6 3065.  44.5 rubis_01.txt
##  7 3065.  44.9 rubis_01.txt
##  8 3066.  39.9 rubis_01.txt
##  9 3066.  49.5 rubis_01.txt
## 10 3066.  48.9 rubis_01.txt
## #  with 17,245 more rows
…
