6 Data frames | Reproducible data treatment with R
…
library(tidyr)
df <- pivot_longer(df, cols=-year, names_to="city", values_to="pop")
df #is tidy

Show output

## # A tibble: 160 x 3
##     year city         pop
##    <int> <chr>      <int>
##  1  1962 Angers    115273
##  2  1962 Bordeaux  278403
##  3  1962 Brest     136104
##  4  1962 Dijon     135694
##  5  1962 Grenoble  156707
##  6  1962 Le.Havre  187845
##  7  1962 Le.Mans   132181
##  8  1962 Lille     239955
##  9  1962 Lyon      535746
## 10  1962 Marseille 778071
## # … with 150 more rows
…
You can find more information on data import and tidyness on the data-import cheatsheet and on the tidyr package.

6.4.2 Tibbles

A tibble is an enhanced version of the data.frame provided by the tidyverse package. The main advantage of tibble is that it has easier initialization and nicer printing than data.frame, and the performance are also enhanced – especially for the reading from files with read_delim(), read_tsv() and read_csv(). Otherwise, the handling is basically the same.

More on tibbles here.

library(tidyverse)
( tib <- tibble(x=runif(1e3), y=cumsum(x)) )

## # A tibble: 1,000 x 2
##         x     y
##     <dbl> <dbl>
##  1 0.347  0.347
##  2 0.501  0.848
##  3 0.786  1.63 
##  4 0.156  1.79 
##  5 0.293  2.08 
##  6 0.617  2.70 
##  7 0.780  3.48 
##  8 0.0691 3.55 
##  9 0.649  4.20 
## 10 0.812  5.01 
## # … with 990 more rows
…
In the end, base R and the tidyverse package provide many efficient functions to perform most of the tasks you would want to perform recursively, thus allowing avoiding explicit for loops.

Here are some examples, and you will find much more here. Take a look at the cheatsheet there, it’s really helpful. Note the use of the pipe operator, %>%, that allows a clear syntax for successive operations:

# create a random tibble
library(tidyverse)
N <- 500
dt <- tibble(x     = rep(runif(N,-1,1),3), 
             y     = runif(N*3,-1,1), 
             signx = ifelse(x>0,"positive","negative"),
             signy = ifelse(y>0,"positive","negative")
)
dt

## # A tibble: 1,500 x 4
##           x       y signx    signy   
##       <dbl>   <dbl> <chr>    <chr>   
##  1 -0.271   -0.658  negative negative
##  2  0.113   -0.835  positive negative
##  3 -0.0877  -0.367  negative negative
##  4  0.682    0.757  positive positive
##  5  0.887    0.0563 positive positive
##  6 -0.00223 -0.819  negative negative
##  7  0.0784   0.414  positive positive
##  8  0.825   -0.0319 positive negative
##  9 -0.717    0.689  negative positive
## 10  0.230    0.719  positive positive
## # … with 1,490 more rows
…
## # A tibble: 4 x 4
## # Groups:   signx [2]
##   signx    signy    mean_x mean_y
##   <chr>    <chr>     <dbl>  <dbl>
## 1 negative negative -0.494 -0.514
## 2 negative positive -0.489  0.490
## 3 positive negative  0.539 -0.514
## 4 positive positive  0.566  0.469

# sorting
dt %>% arrange(x)

## # A tibble: 1,500 x 4
##         x       y signx    signy   
##     <dbl>   <dbl> <chr>    <chr>   
##  1 -0.999 -0.936  negative negative
##  2 -0.999  0.251  negative positive
##  3 -0.999 -0.779  negative negative
##  4 -0.991  0.0744 negative positive
##  5 -0.991  0.805  negative positive
##  6 -0.991  0.808  negative positive
##  7 -0.988 -0.360  negative negative
##  8 -0.988  0.671  negative positive
##  9 -0.988  0.667  negative positive
## 10 -0.987  0.324  negative positive
## # … with 1,490 more rows

dt %>% arrange(x, desc(y))

## # A tibble: 1,500 x 4
##         x       y signx    signy   
##     <dbl>   <dbl> <chr>    <chr>   
##  1 -0.999  0.251  negative positive
##  2 -0.999 -0.779  negative negative
##  3 -0.999 -0.936  negative negative
##  4 -0.991  0.808  negative positive
##  5 -0.991  0.805  negative positive
##  6 -0.991  0.0744 negative positive
##  7 -0.988  0.671  negative positive
##  8 -0.988  0.667  negative positive
##  9 -0.988 -0.360  negative negative
## 10 -0.987  0.931  negative positive
## # … with 1,490 more rows
…
## # A tibble: 4 x 3
##   signx    signy    value
##   <chr>    <chr>    <lgl>
## 1 positive positive TRUE 
## 2 positive negative FALSE
## 3 negative positive FALSE
## 4 negative negative TRUE

inner_join(dt,dt2)

## # A tibble: 1,500 x 5
##           x       y signx    signy    value
##       <dbl>   <dbl> <chr>    <chr>    <lgl>
##  1 -0.271   -0.658  negative negative TRUE 
##  2  0.113   -0.835  positive negative FALSE
##  3 -0.0877  -0.367  negative negative TRUE 
##  4  0.682    0.757  positive positive TRUE 
##  5  0.887    0.0563 positive positive TRUE 
##  6 -0.00223 -0.819  negative negative TRUE 
##  7  0.0784   0.414  positive positive TRUE 
##  8  0.825   -0.0319 positive negative FALSE
##  9 -0.717    0.689  negative positive FALSE
## 10  0.230    0.719  positive positive TRUE 
## # … with 1,490 more rows
…
## # A tibble: 6 x 3
##       a     b     c
##   <int> <int> <int>
## 1     1     3     6
## 2     2     4     7
## 3     3     5     8
## 4     3    NA     3
## 5     2    NA     4
## 6     1    NA     5

# add/modify a column
dt %>% mutate(w=seq_along(x), z=sin(x))

## # A tibble: 1,500 x 6
##           x       y signx    signy        w        z
##       <dbl>   <dbl> <chr>    <chr>    <int>    <dbl>
##  1 -0.271   -0.658  negative negative     1 -0.267  
##  2  0.113   -0.835  positive negative     2  0.113  
##  3 -0.0877  -0.367  negative negative     3 -0.0876 
##  4  0.682    0.757  positive positive     4  0.631  
##  5  0.887    0.0563 positive positive     5  0.775  
##  6 -0.00223 -0.819  negative negative     6 -0.00223
##  7  0.0784   0.414  positive positive     7  0.0783 
##  8  0.825   -0.0319 positive negative     8  0.735  
##  9 -0.717    0.689  negative positive     9 -0.657  
## 10  0.230    0.719  positive positive    10  0.228  
## # … with 1,490 more rows

dt %>% mutate(x=seq_along(x))

## # A tibble: 1,500 x 4
##        x       y signx    signy   
##    <int>   <dbl> <chr>    <chr>   
##  1     1 -0.658  negative negative
##  2     2 -0.835  positive negative
##  3     3 -0.367  negative negative
##  4     4  0.757  positive positive
##  5     5  0.0563 positive positive
##  6     6 -0.819  negative negative
##  7     7  0.414  positive positive
##  8     8 -0.0319 positive negative
##  9     9  0.689  negative positive
## 10    10  0.719  positive positive
## # … with 1,490 more rows

# selecting columns
dt %>% select(starts_with("sign"))

## # A tibble: 1,500 x 2
##    signx    signy   
##    <chr>    <chr>   
##  1 negative negative
##  2 positive negative
##  3 negative negative
##  4 positive positive
##  5 positive positive
##  6 negative negative
##  7 positive positive
##  8 positive negative
##  9 negative positive
## 10 positive positive
## # … with 1,490 more rows

dt %>% select(contains("x"))

## # A tibble: 1,500 x 2
##           x signx   
##       <dbl> <chr>   
##  1 -0.271   negative
##  2  0.113   positive
##  3 -0.0877  negative
##  4  0.682   positive
##  5  0.887   positive
##  6 -0.00223 negative
##  7  0.0784  positive
##  8  0.825   positive
##  9 -0.717   negative
## 10  0.230   positive
## # … with 1,490 more rows

dt %>% select(x)  # only x

## # A tibble: 1,500 x 1
##           x
##       <dbl>
##  1 -0.271  
##  2  0.113  
##  3 -0.0877 
##  4  0.682  
##  5  0.887  
##  6 -0.00223
##  7  0.0784 
##  8  0.825  
##  9 -0.717  
## 10  0.230  
## # … with 1,490 more rows

dt %>% select(-x) # all but x

## # A tibble: 1,500 x 3
##          y signx    signy   
##      <dbl> <chr>    <chr>   
##  1 -0.658  negative negative
##  2 -0.835  positive negative
##  3 -0.367  negative negative
##  4  0.757  positive positive
##  5  0.0563 positive positive
##  6 -0.819  negative negative
##  7  0.414  positive positive
##  8 -0.0319 positive negative
##  9  0.689  negative positive
## 10  0.719  positive positive
## # … with 1,490 more rows

# filtering columns
dt %>% filter(signx=="positive")

## # A tibble: 708 x 4
##         x       y signx    signy   
##     <dbl>   <dbl> <chr>    <chr>   
##  1 0.113  -0.835  positive negative
##  2 0.682   0.757  positive positive
##  3 0.887   0.0563 positive positive
##  4 0.0784  0.414  positive positive
##  5 0.825  -0.0319 positive negative
##  6 0.230   0.719  positive positive
##  7 0.760   0.784  positive positive
##  8 0.968  -0.888  positive negative
##  9 0.943   0.655  positive positive
## 10 0.557  -0.823  positive negative
## # … with 698 more rows

dt %>% filter(x<0, y>.1)

## # A tibble: 337 x 4
##         x     y signx    signy   
##     <dbl> <dbl> <chr>    <chr>   
##  1 -0.717 0.689 negative positive
##  2 -0.974 0.155 negative positive
##  3 -0.562 0.655 negative positive
##  4 -0.509 0.593 negative positive
##  5 -0.410 0.817 negative positive
##  6 -0.369 0.543 negative positive
##  7 -0.314 0.881 negative positive
##  8 -0.204 0.815 negative positive
##  9 -0.661 0.473 negative positive
## 10 -0.620 0.601 negative positive
## # … with 327 more rows

# reorder columns
dt %>% relocate(y, .after = signy)

## # A tibble: 1,500 x 4
##           x signx    signy          y
##       <dbl> <chr>    <chr>      <dbl>
##  1 -0.271   negative negative -0.658 
##  2  0.113   positive negative -0.835 
##  3 -0.0877  negative negative -0.367 
##  4  0.682   positive positive  0.757 
##  5  0.887   positive positive  0.0563
##  6 -0.00223 negative negative -0.819 
##  7  0.0784  positive positive  0.414 
##  8  0.825   positive negative -0.0319
##  9 -0.717   negative positive  0.689 
## 10  0.230   positive positive  0.719 
## # … with 1,490 more rows
…
# un-nesting data
dt7 <- dt6 %>% unnest(tidied)
dt7

## # A tibble: 119 x 9
##    file    data      fit   term  estimate std.error statistic   p.value mean_int
##    <chr>   <list>    <lis> <chr>    <dbl>     <dbl>     <dbl>     <dbl>    <dbl>
##  1 rubis_… <spec_tb… <nls> y0        72.4    2.04        35.5 5.55e-180     443.
##  2 rubis_… <spec_tb… <nls> A1     69772.   320.         218.  0.            443.
##  3 rubis_… <spec_tb… <nls> A2     34316.   265.         129.  0.            443.
##  4 rubis_… <spec_tb… <nls> w1      3203.     0.0271  118214.  0.            443.
##  5 rubis_… <spec_tb… <nls> w2      3173.     0.0350   90577.  0.            443.
##  6 rubis_… <spec_tb… <nls> sd1       14.5    0.0860     169.  0.            443.
##  7 rubis_… <spec_tb… <nls> sd2       10.8    0.109       99.0 0.            443.
##  8 rubis_… <spec_tb… <nls> y0        29.5    0.485       60.7 0.            192.
##  9 rubis_… <spec_tb… <nls> A1     30567.    66.3        461.  0.            192.
## 10 rubis_… <spec_tb… <nls> A2     14754.    55.6        265.  0.            192.
## # … with 109 more rows
…
popul.tidy <- popul %>% 
    pivot_longer(cols=-year,
                 names_to = "city",
                 values_to = "pop"
                )
popul.tidy

## # A tibble: 160 x 3
##     year city         pop
##    <dbl> <chr>      <dbl>
##  1  1962 Angers    115273
##  2  1962 Bordeaux  278403
##  3  1962 Brest     136104
##  4  1962 Dijon     135694
##  5  1962 Grenoble  156707
##  6  1962 Le Havre  187845
##  7  1962 Le Mans   132181
##  8  1962 Lille     239955
##  9  1962 Lyon      535746
## 10  1962 Marseille 778071
## # … with 150 more rows
…
