R Exercises - Load and plot multiple files
…
Store into flist the list of all .xls files in the Data/ folder. Take a look at the list.files() function for this.

Open one of the .xls files and study the structure of the file. The first group of 2-column data is the blank measurement, while the second group under the blank is the actual raw measurement. Write a function readFTIR() that, given a file name, successively:

reads and store the blank data

reads and store the raw data

returns a data.frame containing the columns w, blank, raw, and transmittance, the later being the transmittance (in percent) with respect to the blank measurement.

test it on the first file in the list.

The final table should look like this:

## # A tibble: 3,401 x 4
##        w blank   raw transmittance
##    <dbl> <dbl> <dbl>         <dbl>
##  1  4000   100  94.2          94.2
##  2  3999   100  94.3          94.3
##  3  3998   100  94.2          94.2
##  4  3997   100  94.2          94.2
##  5  3996   100  94.2          94.2
##  6  3995   100  94.2          94.2
##  7  3994   100  94.2          94.2
##  8  3993   100  94.2          94.2
##  9  3992   100  94.2          94.2
## 10  3991   100  94.2          94.2
## #  with 3,391 more rows
…
Define an empty data.frame called df

Define a for loop on all elements of flist

Then successively:

Read the current file with the above-defined function and store it in tempdf

Add the column name to tempdf containing the current file name. If needed, trim the path from the name string using basename().

Stack tempdf below df by binding them row-wise.

The final table should look like this:

## # A tibble: 34,010 x 5
##        w blank   raw transmittance name            
##    <dbl> <dbl> <dbl>         <dbl> <chr>           
##  1  4000   100  94.2          94.2 sample_0_25C.xls
##  2  3999   100  94.3          94.3 sample_0_25C.xls
##  3  3998   100  94.2          94.2 sample_0_25C.xls
##  4  3997   100  94.2          94.2 sample_0_25C.xls
##  5  3996   100  94.2          94.2 sample_0_25C.xls
##  6  3995   100  94.2          94.2 sample_0_25C.xls
##  7  3994   100  94.2          94.2 sample_0_25C.xls
##  8  3993   100  94.2          94.2 sample_0_25C.xls
##  9  3992   100  94.2          94.2 sample_0_25C.xls
## 10  3991   100  94.2          94.2 sample_0_25C.xls
## #  with 34,000 more rows
…
