12 3D color plots | Reproducible data treatment with R
…
12.1 The ggplot2 solution

Let’s create a dummy set of spectra that we will gather in a tidy tibble.

library(tidyverse)
Nspec <- 40                           # Amount of spectra
N     <- 500                          # Size of the x vector
# Create a fake data tibble
fake_data <- tibble(T = round(seq(273, 500, length=Nspec), 1)) %>% 
    mutate(spec = map(T, ~tibble(w = seq(0, 100, length = N),
                         Intensity = 50*dnorm(w, mean = (./T[1])*20 + 25, 
                                                  sd  = 10+runif(1,max=5)))))
fake_data

## # A tibble: 40 × 2
##        T spec              
##    <dbl> <list>            
##  1  273  <tibble [500 × 2]>
##  2  279. <tibble [500 × 2]>
##  3  285. <tibble [500 × 2]>
##  4  290. <tibble [500 × 2]>
##  5  296. <tibble [500 × 2]>
##  6  302. <tibble [500 × 2]>
##  7  308. <tibble [500 × 2]>
##  8  314. <tibble [500 × 2]>
##  9  320. <tibble [500 × 2]>
## 10  325. <tibble [500 × 2]>
## # … with 30 more rows

fake_data <- fake_data %>% unnest(spec)
fake_data

## # A tibble: 20,000 × 3
##        T     w Intensity
##    <dbl> <dbl>     <dbl>
##  1   273 0       0.00385
##  2   273 0.200   0.00406
##  3   273 0.401   0.00428
##  4   273 0.601   0.00451
##  5   273 0.802   0.00475
##  6   273 1.00    0.00501
##  7   273 1.20    0.00528
##  8   273 1.40    0.00556
##  9   273 1.60    0.00585
## 10   273 1.80    0.00616
## # … with 19,990 more rows
…
