10 Conditional actions and loops | Reproducible data treatment with R
…
# For more complex operations, use it this way:
sapply(1:nrow(dt), function(i){
    dt$x[i] + dt$y[(i+2)%%nrow(dt)+1] - dt$z[(i+4)%%nrow(dt)+1]
})

## [1]   16   19  -23  -56 -111

10.4 Exercises

Exercise 1
Given x <- runif(1e3, min=-1, max=1), create a tibble like this one:

## # A tibble: 1,000 × 2
##          x y    
##      <dbl> <chr>
##  1  0.0681 x>0  
##  2 -0.346  x<=0 
##  3  0.387  x>0  
##  4 -0.971  x<=0 
##  5 -0.245  x<=0 
##  6 -0.491  x<=0 
##  7  0.345  x>0  
##  8  0.797  x>0  
##  9  0.258  x>0  
## 10  0.228  x>0  
## # … with 990 more rows
…
