6 Data frames | Reproducible data treatment with R
…
library(tidyr)
df <- pivot_longer(df, cols=-year, names_to="city", values_to="pop")
df #is tidy

Show output

## # A tibble: 160 × 3
##     year city         pop
##    <int> <chr>      <int>
##  1  1962 Angers    115273
##  2  1962 Bordeaux  278403
##  3  1962 Brest     136104
##  4  1962 Dijon     135694
##  5  1962 Grenoble  156707
##  6  1962 LeHavre   187845
##  7  1962 LeMans    132181
##  8  1962 Lille     239955
##  9  1962 Lyon      535746
## 10  1962 Marseille 778071
## # … with 150 more rows
…
A tibble is an enhanced version of the data.frame provided by the tibble package (which is part of the tidyverse). The main advantage of tibble is that it has easier initialization and nicer printing than data.frame. Moreover, the performance are also enhanced for the reading from files with read_csv(), read_tsv(), read_table() and read_delim() that do the same things as their read.xx() counterparts and return a tibble. Otherwise, the handling is basically the same.

More on tibbles here.

Note that when initializing tibbles, the construction is iterative. It means that when creating a second column, one can refer to the first one that was created. This does’t work with data.frames.

library(tidyverse)
data.frame(x=runif(1e3), y=cumsum(x))

## Error in data.frame(x = runif(1000), y = cumsum(x)): object 'x' not found

tib <- tibble(x=runif(1e3), y=cumsum(x))
tib

## # A tibble: 1,000 × 2
##        x     y
##    <dbl> <dbl>
##  1 0.590 0.590
##  2 0.929 1.52 
##  3 0.462 1.98 
##  4 0.395 2.38 
##  5 0.449 2.83 
##  6 0.553 3.38 
##  7 0.188 3.57 
##  8 0.488 4.06 
##  9 0.686 4.74 
## 10 0.817 5.56 
## # … with 990 more rows
…
Here are some examples, and you will find much more here. Take a look at the cheatsheets on tidyr and on dplyr, it’s really helpful.

Let’s work on this tibble:

# Let's create a random tibble
library(tidyverse)
N <- 500
dt <- tibble(x     = rep(runif(N,-1,1),3), 
             y     = runif(N*3,-1,1), 
             signx = ifelse(x>0,"positive","negative"),
             signy = ifelse(y>0,"positive","negative")
)
dt

## # A tibble: 1,500 × 4
##         x       y signx    signy   
##     <dbl>   <dbl> <chr>    <chr>   
##  1 -0.430  0.785  negative positive
##  2  0.417 -0.881  positive negative
##  3  0.572 -0.0317 positive negative
##  4 -0.730  0.897  negative positive
##  5  0.715 -0.598  positive negative
##  6  0.132  0.0621 positive positive
##  7 -0.626  0.119  negative positive
##  8 -0.828  0.728  negative positive
##  9 -0.835  0.792  negative positive
## 10  0.355  0.757  positive positive
## # … with 1,490 more rows
…
## # A tibble: 4 × 5
## # Groups:   signx [2]
##   signx    signy    count mean_x mean_y
##   <chr>    <chr>    <int>  <dbl>  <dbl>
## 1 negative negative   412 -0.498 -0.510
## 2 negative positive   392 -0.497  0.497
## 3 positive negative   340  0.530 -0.516
## 4 positive positive   356  0.546  0.466

6.5.5 Sorting

dt %>% arrange(x)

## # A tibble: 1,500 × 4
##         x       y signx    signy   
##     <dbl>   <dbl> <chr>    <chr>   
##  1 -0.999 -0.936  negative negative
##  2 -0.999  0.251  negative positive
##  3 -0.999 -0.779  negative negative
##  4 -0.998 -0.921  negative negative
##  5 -0.998 -0.0853 negative negative
##  6 -0.998 -0.646  negative negative
##  7 -0.991  0.0744 negative positive
##  8 -0.991  0.805  negative positive
##  9 -0.991  0.808  negative positive
## 10 -0.988 -0.360  negative negative
## # … with 1,490 more rows

dt %>% arrange(x, desc(y))

## # A tibble: 1,500 × 4
##         x       y signx    signy   
##     <dbl>   <dbl> <chr>    <chr>   
##  1 -0.999  0.251  negative positive
##  2 -0.999 -0.779  negative negative
##  3 -0.999 -0.936  negative negative
##  4 -0.998 -0.0853 negative negative
##  5 -0.998 -0.646  negative negative
##  6 -0.998 -0.921  negative negative
##  7 -0.991  0.808  negative positive
##  8 -0.991  0.805  negative positive
##  9 -0.991  0.0744 negative positive
## 10 -0.988  0.671  negative positive
## # … with 1,490 more rows
…
## # A tibble: 4 × 3
##   signx    signy    value
##   <chr>    <chr>    <lgl>
## 1 positive positive TRUE 
## 2 positive negative FALSE
## 3 negative positive FALSE
## 4 negative negative TRUE

inner_join(dt, dt2)

## # A tibble: 1,500 × 5
##         x       y signx    signy    value
##     <dbl>   <dbl> <chr>    <chr>    <lgl>
##  1 -0.430  0.785  negative positive FALSE
##  2  0.417 -0.881  positive negative FALSE
##  3  0.572 -0.0317 positive negative FALSE
##  4 -0.730  0.897  negative positive FALSE
##  5  0.715 -0.598  positive negative FALSE
##  6  0.132  0.0621 positive positive TRUE 
##  7 -0.626  0.119  negative positive FALSE
##  8 -0.828  0.728  negative positive FALSE
##  9 -0.835  0.792  negative positive FALSE
## 10  0.355  0.757  positive positive TRUE 
## # … with 1,490 more rows
…
6.5.8 Add/modify a column

mutate(), like $, adds a column if it doesn’t exist, and modifies it if it does.

dt %>% mutate(w=seq_along(x), z=sin(x))

## # A tibble: 1,500 × 6
##         x       y signx    signy        w      z
##     <dbl>   <dbl> <chr>    <chr>    <int>  <dbl>
##  1 -0.430  0.785  negative positive     1 -0.417
##  2  0.417 -0.881  positive negative     2  0.405
##  3  0.572 -0.0317 positive negative     3  0.541
##  4 -0.730  0.897  negative positive     4 -0.667
##  5  0.715 -0.598  positive negative     5  0.656
##  6  0.132  0.0621 positive positive     6  0.132
##  7 -0.626  0.119  negative positive     7 -0.586
##  8 -0.828  0.728  negative positive     8 -0.737
##  9 -0.835  0.792  negative positive     9 -0.741
## 10  0.355  0.757  positive positive    10  0.348
## # … with 1,490 more rows

dt %>% mutate(x=seq_along(x))

## # A tibble: 1,500 × 4
##        x       y signx    signy   
##    <int>   <dbl> <chr>    <chr>   
##  1     1  0.785  negative positive
##  2     2 -0.881  positive negative
##  3     3 -0.0317 positive negative
##  4     4  0.897  negative positive
##  5     5 -0.598  positive negative
##  6     6  0.0621 positive positive
##  7     7  0.119  negative positive
##  8     8  0.728  negative positive
##  9     9  0.792  negative positive
## 10    10  0.757  positive positive
## # … with 1,490 more rows

6.5.9 Selecting columns

dt %>% select(x)  # only x

## # A tibble: 1,500 × 1
##         x
##     <dbl>
##  1 -0.430
##  2  0.417
##  3  0.572
##  4 -0.730
##  5  0.715
##  6  0.132
##  7 -0.626
##  8 -0.828
##  9 -0.835
## 10  0.355
## # … with 1,490 more rows

dt %>% select(-x) # all but x

## # A tibble: 1,500 × 3
##          y signx    signy   
##      <dbl> <chr>    <chr>   
##  1  0.785  negative positive
##  2 -0.881  positive negative
##  3 -0.0317 positive negative
##  4  0.897  negative positive
##  5 -0.598  positive negative
##  6  0.0621 positive positive
##  7  0.119  negative positive
##  8  0.728  negative positive
##  9  0.792  negative positive
## 10  0.757  positive positive
## # … with 1,490 more rows

dt %>% select(starts_with("sign"))

## # A tibble: 1,500 × 2
##    signx    signy   
##    <chr>    <chr>   
##  1 negative positive
##  2 positive negative
##  3 positive negative
##  4 negative positive
##  5 positive negative
##  6 positive positive
##  7 negative positive
##  8 negative positive
##  9 negative positive
## 10 positive positive
## # … with 1,490 more rows

dt %>% select(contains("x"))

## # A tibble: 1,500 × 2
##         x signx   
##     <dbl> <chr>   
##  1 -0.430 negative
##  2  0.417 positive
##  3  0.572 positive
##  4 -0.730 negative
##  5  0.715 positive
##  6  0.132 positive
##  7 -0.626 negative
##  8 -0.828 negative
##  9 -0.835 negative
## 10  0.355 positive
## # … with 1,490 more rows

6.5.10 Filtering columns

dt %>% filter(signx=="positive")

## # A tibble: 696 × 4
##         x       y signx    signy   
##     <dbl>   <dbl> <chr>    <chr>   
##  1 0.417  -0.881  positive negative
##  2 0.572  -0.0317 positive negative
##  3 0.715  -0.598  positive negative
##  4 0.132   0.0621 positive positive
##  5 0.355   0.757  positive positive
##  6 0.145   0.444  positive positive
##  7 0.172   0.765  positive positive
##  8 0.627  -0.0858 positive negative
##  9 0.0242  0.643  positive positive
## 10 0.271  -0.787  positive negative
## # … with 686 more rows

dt %>% filter(x<0, y>.1) # multiple filters can be applied at once

## # A tibble: 345 × 4
##         x     y signx    signy   
##     <dbl> <dbl> <chr>    <chr>   
##  1 -0.430 0.785 negative positive
##  2 -0.730 0.897 negative positive
##  3 -0.626 0.119 negative positive
##  4 -0.828 0.728 negative positive
##  5 -0.835 0.792 negative positive
##  6 -0.825 0.742 negative positive
##  7 -0.215 0.376 negative positive
##  8 -0.713 0.925 negative positive
##  9 -0.228 0.360 negative positive
## 10 -0.717 0.689 negative positive
## # … with 335 more rows

6.5.11 Reorder columns

dt %>% relocate(y, .after = signy)

## # A tibble: 1,500 × 4
##         x signx    signy          y
##     <dbl> <chr>    <chr>      <dbl>
##  1 -0.430 negative positive  0.785 
##  2  0.417 positive negative -0.881 
##  3  0.572 positive negative -0.0317
##  4 -0.730 negative positive  0.897 
##  5  0.715 positive negative -0.598 
##  6  0.132 positive positive  0.0621
##  7 -0.626 negative positive  0.119 
##  8 -0.828 negative positive  0.728 
##  9 -0.835 negative positive  0.792 
## 10  0.355 positive positive  0.757 
## # … with 1,490 more rows
…
## # A tibble: 2 × 4
##   a                b                 sumx  sumy
##   <list>           <list>           <dbl> <dbl>
## 1 <tibble [3 × 2]> <tibble [4 × 2]>    52    84
## 2 <tibble [4 × 2]> <tibble [4 × 2]>     8   -40

6.5.14 Nesting and un-nesting data

dt7 <- dt6 %>% 
    mutate(file = basename(file)) %>% 
    unnest(data)
dt7

## # A tibble: 5,075 × 3
##    file             w   Int
##    <chr>        <dbl> <dbl>
##  1 rubis_01.txt 3064.  43.9
##  2 rubis_01.txt 3064.  47.9
##  3 rubis_01.txt 3064.  44.5
##  4 rubis_01.txt 3065.  50.5
##  5 rubis_01.txt 3065.  50.5
##  6 rubis_01.txt 3065.  44.5
##  7 rubis_01.txt 3065.  44.9
##  8 rubis_01.txt 3066.  39.9
##  9 rubis_01.txt 3066.  49.5
## 10 rubis_01.txt 3066.  48.9
## # … with 5,065 more rows
…
## Warning: 122 parsing failures.
##  row   col  expected    actual           file
##   NA NA    5 columns 0 columns 'Data/ATG.txt'
## 4090 Index a double  Results:  'Data/ATG.txt'
## 4090 NA    5 columns 1 columns 'Data/ATG.txt'
## 4091 Index a double  Content   'Data/ATG.txt'
## 4091 Ts    a double  %         'Data/ATG.txt'
## .... ..... ......... ......... ..............
## See problems(...) for more details.

d

## # A tibble: 4,088 × 5
##    Index     t    Ts    Tr Value
##    <dbl> <dbl> <dbl> <dbl> <dbl>
##  1     0     0  32.4    25  33.0
##  2     3     3  32.4    25  33.0
##  3     6     6  32.4    25  33.0
##  4     9     9  32.5    25  33.0
##  5    12    12  32.5    25  33.0
##  6    15    15  32.5    25  33.0
##  7    18    18  32.6    25  32.9
##  8    21    21  32.6    25  32.9
##  9    24    24  32.6    25  32.9
## 10    27    27  32.7    25  32.9
## # … with 4,078 more rows
…
popul.tidy <- popul %>% 
    pivot_longer(cols=-year,
                 names_to = "city",
                 values_to = "pop"
                )
popul.tidy

## # A tibble: 160 × 3
##     year city         pop
##    <dbl> <chr>      <dbl>
##  1  1962 Angers    115273
##  2  1962 Bordeaux  278403
##  3  1962 Brest     136104
##  4  1962 Dijon     135694
##  5  1962 Grenoble  156707
##  6  1962 LeHavre   187845
##  7  1962 LeMans    132181
##  8  1962 Lille     239955
##  9  1962 Lyon      535746
## 10  1962 Marseille 778071
## # … with 150 more rows
…
