7 Reading/writing all kinds of files | Reproducible data treatment with R
…
## Country Name,Country Code,Year,Value
## Arab World,ARB,1960,92490932
## Arab World,ARB,1961,95044497
## Arab World,ARB,1962,97682294
## Arab World,ARB,1963,100411076
## Arab World,ARB,1964,103239902
## Arab World,ARB,1965,106174988
## Arab World,ARB,1966,109230593
## Arab World,ARB,1967,112406932
## Arab World,ARB,1968,115680165

library(tidyverse)
read_csv("Data/tot_population.csv")

## # A tibble: 14,885 × 4
##    `Country Name` `Country Code`  Year     Value
##    <chr>          <chr>          <dbl>     <dbl>
##  1 Arab World     ARB             1960  92490932
##  2 Arab World     ARB             1961  95044497
##  3 Arab World     ARB             1962  97682294
##  4 Arab World     ARB             1963 100411076
##  5 Arab World     ARB             1964 103239902
##  6 Arab World     ARB             1965 106174988
##  7 Arab World     ARB             1966 109230593
##  8 Arab World     ARB             1967 112406932
##  9 Arab World     ARB             1968 115680165
## 10 Arab World     ARB             1969 119016542
## # … with 14,875 more rows

read_csv("Data/tot_population.csv", skip = 1)

## # A tibble: 14,884 × 4
##    `Arab World` ARB   `1960` `92490932`
##    <chr>        <chr>  <dbl>      <dbl>
##  1 Arab World   ARB     1961   95044497
##  2 Arab World   ARB     1962   97682294
##  3 Arab World   ARB     1963  100411076
##  4 Arab World   ARB     1964  103239902
##  5 Arab World   ARB     1965  106174988
##  6 Arab World   ARB     1966  109230593
##  7 Arab World   ARB     1967  112406932
##  8 Arab World   ARB     1968  115680165
##  9 Arab World   ARB     1969  119016542
## 10 Arab World   ARB     1970  122398374
## # … with 14,874 more rows

read_csv("Data/tot_population.csv", skip = 1, col_names = LETTERS[1:4])

## # A tibble: 14,885 × 4
##    A          B         C         D
##    <chr>      <chr> <dbl>     <dbl>
##  1 Arab World ARB    1960  92490932
##  2 Arab World ARB    1961  95044497
##  3 Arab World ARB    1962  97682294
##  4 Arab World ARB    1963 100411076
##  5 Arab World ARB    1964 103239902
##  6 Arab World ARB    1965 106174988
##  7 Arab World ARB    1966 109230593
##  8 Arab World ARB    1967 112406932
##  9 Arab World ARB    1968 115680165
## 10 Arab World ARB    1969 119016542
## # … with 14,875 more rows
…
