R Exercises - CO2 emissions
…
CO2 <- inner_join(CO2, continent)
# Population
pop <- read_csv("Data/tot_population.csv", na="..")
names(pop) <- c("Country","Code","Year","Population")
# Energy data
energy <- read_csv("Data/energy-use-per-capita.csv")
names(energy) <- c("Country", "Code", "Year", "Energy")
# Merge data
DF <- CO2
DF <- inner_join(DF, energy, by=c("Code","Year"))
DF <- inner_join(DF, pop, by=c("Code","Year"))
DF <- DF %>% select(-Country.x, -Country.y)
DF

## # A tibble: 5,990 x 7
##    Code   Year   CO2 Continent Energy Country Population
##    <chr> <dbl> <dbl> <chr>      <dbl> <chr>        <dbl>
##  1 ALB    1971  1.99 Europe     9131. Albania    2187853
##  2 ALB    1972  2.52 Europe    10067. Albania    2243126
##  3 ALB    1973  2.30 Europe     8870. Albania    2296752
##  4 ALB    1974  1.85 Europe     9036. Albania    2350124
##  5 ALB    1975  1.91 Europe     9617. Albania    2404831
##  6 ALB    1976  2.01 Europe    10362. Albania    2458526
##  7 ALB    1977  2.28 Europe    10743. Albania    2513546
##  8 ALB    1978  2.53 Europe    11756. Albania    2566266
##  9 ALB    1979  2.90 Europe    10051. Albania    2617832
## 10 ALB    1980  1.94 Europe    13369. Albania    2671997
## #  with 5,980 more rows
…
