R Exercises - TGA data
…
library(ggplot2)
library(patchwork)
library(cowplot)
library(egg)
# setwd("/home/marc/Documents/Elcin_folder/Data")
df2 <- read.table("Data/ATG.txt",
                  header = FALSE,
                  skip = 12,
                  nrows = 3701, #The values which temperature starts to decrease are eliminated.
                  col.names = c("Index", "t", "Ts", "Tr", "Value")
                  )
df2 <- tibble(df2)
df2

## # A tibble: 3,701 x 5
##    Index     t    Ts    Tr Value
##    <int> <int> <dbl> <dbl> <dbl>
##  1     0     0  32.4    25  33.0
##  2     3     3  32.4    25  33.0
##  3     6     6  32.4    25  33.0
##  4     9     9  32.5    25  33.0
##  5    12    12  32.5    25  33.0
##  6    15    15  32.5    25  33.0
##  7    18    18  32.6    25  32.9
##  8    21    21  32.6    25  32.9
##  9    24    24  32.6    25  32.9
## 10    27    27  32.7    25  32.9
## #  with 3,691 more rows
…
