R Exercises - TGA data
…
Define nice axis labels with the units

Convert degrees Celsius to Kelvins

library(ggplot2)
library(tidyverse)

z <- z[-(3714:4100),]
z <- z[-(1:613),]

z$Temp_K <- z$Tr[]+273.15
z

## # A tibble: 3,100 x 6
##    Index     t    Ts    Tr Value Temp_K
##    <int> <int> <dbl> <dbl> <dbl>  <dbl>
##  1  1839  1839  36.1  28.2  30.6   301.
##  2  1842  1842  36.3  28.5  30.6   302.
##  3  1845  1845  36.5  28.8  30.6   302.
##  4  1848  1848  36.7  29    30.6   302.
##  5  1851  1851  37.0  29.2  30.6   302.
##  6  1854  1854  37.2  29.5  30.6   303.
##  7  1857  1857  37.4  29.8  30.6   303.
##  8  1860  1860  37.6  30    30.6   303.
##  9  1863  1863  37.8  30.2  30.6   303.
## 10  1866  1866  38.1  30.5  30.6   304.
## #  with 3,090 more rows
…
