R Exercises
…
## Source: local data frame [3 x 2]
## Groups: <by row>
## 
## # A tibble: 3 x 2
##   T     fit   
## * <fct> <list>
## 1 1     <nls> 
## 2 2     <nls> 
## 3 3     <nls>

d_fit %>% augment(fit)

## # A tibble: 63 x 5
## # Groups:   T [3]
##    T         x      y .fitted  .resid
##    <fct> <dbl>  <dbl>   <dbl>   <dbl>
##  1 1       -10 -7.32   -7.15  -0.168 
##  2 1        -9 -6.01   -6.38   0.373 
##  3 1        -8 -5.83   -5.61  -0.217 
##  4 1        -7 -4.74   -4.84   0.0950
##  5 1        -6 -3.74   -4.07   0.329 
##  6 1        -5 -3.61   -3.30  -0.312 
##  7 1        -4 -2.66   -2.52  -0.140 
##  8 1        -3 -1.59   -1.75   0.167 
##  9 1        -2 -1.23   -0.982 -0.246 
## 10 1        -1 -0.377  -0.211 -0.166 
## #  with 53 more rows
…
