R Exercises - G(r,t)
…
3 Plotting data

We should have a Grt dataset that looks like this:

Grt

## # A tibble: 2,815,407 x 4
##      r.A  t.ps      r2Grt epskt
##    <dbl> <dbl>      <dbl> <dbl>
##  1     0   0   77.7        0.01
##  2     0   0.1  0.000512   0.01
##  3     0   0.2  0.000203   0.01
##  4     0   0.3  0.000148   0.01
##  5     0   0.4  0.0000979  0.01
##  6     0   0.5  0.0000817  0.01
##  7     0   0.6  0.0000714  0.01
##  8     0   0.7  0.0000683  0.01
##  9     0   0.8  0.0000687  0.01
## 10     0   0.9  0.0000552  0.01
## #  with 2,815,397 more rows
…
