R Exercises – Solution
…
## Source: local data frame [3 x 2]
## Groups: <by row>
## 
## # A tibble: 3 x 2
##   T     fit   
## * <fct> <list>
## 1 1     <nls> 
## 2 2     <nls> 
## 3 3     <nls>

d_fit %>% augment(fit)

## # A tibble: 63 x 5
## # Groups:   T [3]
##    T         x       y .fitted   .resid
##    <fct> <dbl>   <dbl>   <dbl>    <dbl>
##  1 1       -10 -2.86    -2.69  -0.171  
##  2 1        -9 -2.69    -2.38  -0.307  
##  3 1        -8 -1.63    -2.07   0.434  
##  4 1        -7 -1.76    -1.76  -0.00267
##  5 1        -6 -1.22    -1.44   0.226  
##  6 1        -5 -1.21    -1.13  -0.0807 
##  7 1        -4 -1.20    -0.821 -0.376  
##  8 1        -3 -0.550   -0.510 -0.0398 
##  9 1        -2 -0.167   -0.198  0.0311 
## 10 1        -1  0.0306   0.113 -0.0825 
## # … with 53 more rows
…
