R Exercises
…
For a tidyverse-friendly solution, you need to use a tidy data.frame. For such a simple task, the following may seem more complicated than the direct solution, but for complicated stuff its a life saver. You see that df is not tidy: each observation should be on a line, each variable on a column.

df

## # A tibble: 4,718 x 7
##        w      r1      r2     r3 r1_norm r2_norm r3_norm
##    <dbl>   <dbl>   <dbl>  <dbl>   <dbl>   <dbl>   <dbl>
##  1 5199. 0.00566 0.00225 0.0346 0.00687 0.00517  0.0385
##  2 5198. 0.00568 0.00191 0.0346 0.00689 0.00437  0.0385
##  3 5197. 0.00570 0.00186 0.0346 0.00691 0.00427  0.0385
##  4 5196. 0.00581 0.00201 0.0345 0.00705 0.00462  0.0383
##  5 5195. 0.00583 0.00237 0.0345 0.00707 0.00543  0.0383
##  6 5194. 0.00585 0.00252 0.0345 0.00709 0.00579  0.0383
##  7 5193. 0.00586 0.00268 0.0345 0.00711 0.00614  0.0383
##  8 5192. 0.00588 0.00273 0.0345 0.00713 0.00626  0.0383
##  9 5191. 0.00590 0.00288 0.0345 0.00715 0.00662  0.0383
## 10 5190. 0.00591 0.00304 0.0345 0.00717 0.00697  0.0383
## #  with 4,708 more rows
Lets tidy the table by make the wide table into a long table: for this we use the function pivot_longer() from the tidyverse library.

We want to keep the w column but modify the others, so: cols=c(r1_norm, r2_norm, r3_norm) (no need for quotation marks as pivot_longer() looks for column names). A shorter way is to write cols=-w, which means all columns except w.

The column names of the other columns should populate the new column called Rock (names_to="Rock"), and the values of the table should populate the new column called Intensity, so: values_to="Intensity":

# first, we select only the columns containing "norm" 
# because we will only plot the normalized data
df_tidy <- df[,c("w", "r1_norm", "r2_norm", "r3_norm")]
df_tidy <- pivot_longer(df_tidy, cols=-w, 
                        names_to="Rock", 
                        values_to="Intensity")
df_tidy # is a tidy table

## # A tibble: 14,154 x 3
##        w Rock    Intensity
##    <dbl> <chr>       <dbl>
##  1 5199. r1_norm   0.00687
##  2 5199. r2_norm   0.00517
##  3 5199. r3_norm   0.0385 
##  4 5198. r1_norm   0.00689
##  5 5198. r2_norm   0.00437
##  6 5198. r3_norm   0.0385 
##  7 5197. r1_norm   0.00691
##  8 5197. r2_norm   0.00427
##  9 5197. r3_norm   0.0385 
## 10 5196. r1_norm   0.00705
## #  with 14,144 more rows

Alternatively, a tidyverse friendly way of doing this would be to use the pipe operator, %>%, to successively call df, select the wanted columns, and then pivot the table to make it tidy:

df_tidy <- df %>%
            select(w, contains("norm")) %>%
            pivot_longer(cols=-w, 
                        names_to="Rock", 
                        values_to="Intensity")
df_tidy

## # A tibble: 14,154 x 3
##        w Rock    Intensity
##    <dbl> <chr>       <dbl>
##  1 5199. r1_norm   0.00687
##  2 5199. r2_norm   0.00517
##  3 5199. r3_norm   0.0385 
##  4 5198. r1_norm   0.00689
##  5 5198. r2_norm   0.00437
##  6 5198. r3_norm   0.0385 
##  7 5197. r1_norm   0.00691
##  8 5197. r2_norm   0.00427
##  9 5197. r3_norm   0.0385 
## 10 5196. r1_norm   0.00705
## #  with 14,144 more rows
…
