R Exercises - COVID
…
Join these three tibbles in alldata, and successively:

filter rows to remove data for which the number of cases is lower than the minimum number of cases in China (for easier comparison)

filter rows to have only countries for which we have at least one week of data

mutate the date column to get it as a number of day

alldata <- inner_join(confirmed,deaths, by = c("country","date") )

#####
minchina<- alldata %>% filter(country =="China")
minchina

## # A tibble: 282 x 6
##    country date       cumul_confirmed confirmed cumul_deaths deaths
##    <chr>   <date>               <dbl>     <dbl>        <dbl>  <dbl>
##  1 China   2020-01-22             548       548           17     17
##  2 China   2020-01-23             643        95           18      1
##  3 China   2020-01-24             920       277           26      8
##  4 China   2020-01-25            1406       486           42     16
##  5 China   2020-01-26            2075       669           56     14
##  6 China   2020-01-27            2877       802           82     26
##  7 China   2020-01-28            5509      2632          131     49
##  8 China   2020-01-29            6087       578          133      2
##  9 China   2020-01-30            8141      2054          171     38
## 10 China   2020-01-31            9802      1661          213     42
## #  with 272 more rows
…
library(ggplot2)
library(patchwork)
install.packages("ggrepel")

## 
## The downloaded binary packages are in
##  /var/folders/jb/dqc4_w516w1czktp96lvjfn80000gn/T//Rtmpo9G5UN/downloaded_packages

library("ggrepel")
theme_set(theme_bw())

alldataplot1 <- alldata %>% filter(country %in% c('China',"Italy","France","Spain","US"))
alldataplot1

## # A tibble: 1,237 x 7
## # Groups:   country [5]
##    country date       cumul_confirmed confirmed cumul_deaths deaths    nb
##    <chr>   <date>               <dbl>     <dbl>        <dbl>  <dbl> <int>
##  1 China   2020-01-23             643        95           18      1     1
##  2 China   2020-01-24             920       277           26      8     2
##  3 China   2020-01-25            1406       486           42     16     3
##  4 China   2020-01-26            2075       669           56     14     4
##  5 China   2020-01-27            2877       802           82     26     5
##  6 China   2020-01-28            5509      2632          131     49     6
##  7 China   2020-01-29            6087       578          133      2     7
##  8 China   2020-01-30            8141      2054          171     38     8
##  9 China   2020-01-31            9802      1661          213     42     9
## 10 China   2020-02-01           11891      2089          259     46    10
## #  with 1,227 more rows
…
## # A tibble: 3 x 5
##   T     data              fit    tidied           augmented        
##   <fct> <list>            <list> <list>           <list>           
## 1 1     <tibble [21  2]> <nls>  <tibble [2  5]> <tibble [21  4]>
## 2 2     <tibble [21  2]> <nls>  <tibble [2  5]> <tibble [21  4]>
## 3 3     <tibble [21  2]> <nls>  <tibble [2  5]> <tibble [21  4]>

d_fit %>% unnest(augmented)

## # A tibble: 63 x 8
##    T     data              fit    tidied               x      y .fitted  .resid
##    <fct> <list>            <list> <list>           <dbl>  <dbl>   <dbl>   <dbl>
##  1 1     <tibble [21  2]> <nls>  <tibble [2  5]>   -10 -6.33   -6.02  -0.318 
##  2 1     <tibble [21  2]> <nls>  <tibble [2  5]>    -9 -5.66   -5.37  -0.291 
##  3 1     <tibble [21  2]> <nls>  <tibble [2  5]>    -8 -4.27   -4.73   0.460 
##  4 1     <tibble [21  2]> <nls>  <tibble [2  5]>    -7 -4.42   -4.09  -0.329 
##  5 1     <tibble [21  2]> <nls>  <tibble [2  5]>    -6 -3.14   -3.44   0.308 
##  6 1     <tibble [21  2]> <nls>  <tibble [2  5]>    -5 -2.20   -2.80   0.602 
##  7 1     <tibble [21  2]> <nls>  <tibble [2  5]>    -4 -2.35   -2.16  -0.193 
##  8 1     <tibble [21  2]> <nls>  <tibble [2  5]>    -3 -1.42   -1.52   0.0976
##  9 1     <tibble [21  2]> <nls>  <tibble [2  5]>    -2 -0.602  -0.873  0.271 
## 10 1     <tibble [21  2]> <nls>  <tibble [2  5]>    -1 -0.256  -0.230 -0.0260
## #  with 53 more rows
…
