R Exercises - COVID
…
## # A tibble: 3 x 5
##   T     data              fit    tidied           augmented        
##   <fct> <list>            <list> <list>           <list>           
## 1 1     <tibble [21  2]> <nls>  <tibble [2  5]> <tibble [21  4]>
## 2 2     <tibble [21  2]> <nls>  <tibble [2  5]> <tibble [21  4]>
## 3 3     <tibble [21  2]> <nls>  <tibble [2  5]> <tibble [21  4]>

d_fit %>% unnest(augmented)

## # A tibble: 63 x 8
##    T     data              fit    tidied               x       y .fitted  .resid
##    <fct> <list>            <list> <list>           <dbl>   <dbl>   <dbl>   <dbl>
##  1 1     <tibble [21  2]> <nls>  <tibble [2  5]>   -10 -2.61    -2.69   0.0790
##  2 1     <tibble [21  2]> <nls>  <tibble [2  5]>    -9 -2.47    -2.38  -0.0979
##  3 1     <tibble [21  2]> <nls>  <tibble [2  5]>    -8 -2.41    -2.06  -0.351 
##  4 1     <tibble [21  2]> <nls>  <tibble [2  5]>    -7 -2.09    -1.74  -0.352 
##  5 1     <tibble [21  2]> <nls>  <tibble [2  5]>    -6 -0.922   -1.42   0.498 
##  6 1     <tibble [21  2]> <nls>  <tibble [2  5]>    -5 -1.27    -1.10  -0.170 
##  7 1     <tibble [21  2]> <nls>  <tibble [2  5]>    -4 -0.479   -0.783  0.305 
##  8 1     <tibble [21  2]> <nls>  <tibble [2  5]>    -3 -0.560   -0.465 -0.0957
##  9 1     <tibble [21  2]> <nls>  <tibble [2  5]>    -2 -0.0212  -0.146  0.125 
## 10 1     <tibble [21  2]> <nls>  <tibble [2  5]>    -1  0.656    0.172  0.484 
## #  with 53 more rows
…
