6 Data frames – Reproducible data treatment with R
…
library(tidyr)
df <- pivot_longer(df, cols=-year, names_to="city", values_to="pop")
df #is tidy

Show output

#> # A tibble: 160 × 3
#>     year city         pop
#>    <int> <chr>      <int>
#>  1  1962 Angers    115273
#>  2  1962 Bordeaux  278403
#>  3  1962 Brest     136104
#>  4  1962 Dijon     135694
#>  5  1962 Grenoble  156707
#>  6  1962 LeHavre   187845
#>  7  1962 LeMans    132181
#>  8  1962 Lille     239955
#>  9  1962 Lyon      535746
#> 10  1962 Marseille 778071
#> # ℹ 150 more rows
…
More on tibbles here.

Note that when initializing tibbles, the construction is iterative. It means that when creating a second column, one can refer to the first one that was created. This does’t work with data.frames.

# won't work unless a `x` vector was created before
data.frame(x=runif(1e3), y=cumsum(x)) 

#> Error: object 'x' not found

library(tidyverse)
tib <- tibble(x=runif(1e3), y=cumsum(x))
tib

#> # A tibble: 1,000 × 2
#>        x     y
#>    <dbl> <dbl>
#>  1 0.269 0.269
#>  2 0.150 0.419
#>  3 0.244 0.663
#>  4 0.595 1.26 
#>  5 0.730 1.99 
#>  6 0.982 2.97 
#>  7 0.924 3.89 
#>  8 0.794 4.69 
#>  9 0.518 5.21 
#> 10 0.643 5.85 
#> # ℹ 990 more rows
…
Here are some examples, and you will find much more here. Take a look at the cheatsheets on tidyr and on dplyr, it’s really helpful.

Let’s work on this tibble:

# Let's create a random tibble
library(tidyverse)
N <- 500
dt <- tibble(x     = rep(runif(N, -1, 1), 3), 
             y     = runif(N*3, -1, 1), 
             signx = ifelse(x>0, "positive", "negative"),
             signy = ifelse(y>0, "positive", "negative")
)
dt

#> # A tibble: 1,500 × 4
#>          x      y signx    signy   
#>      <dbl>  <dbl> <chr>    <chr>   
#>  1 -0.0716  0.242 negative positive
#>  2 -0.508   0.420 negative positive
#>  3  0.933   0.264 positive positive
#>  4 -0.844  -0.229 negative negative
#>  5  0.0115 -0.860 positive negative
#>  6 -0.283  -0.460 negative negative
#>  7  0.445  -0.232 positive negative
#>  8  0.572   0.701 positive positive
#>  9 -0.458  -0.229 negative negative
#> 10  0.302   0.306 positive positive
#> # ℹ 1,490 more rows
…
6.5.3 Operations on groups of a variable

group_by(column) groups by similar values of the wanted column(s) and performs the next operations on each element of the group successively.

Alternatively, you can use the parameter by=column or .by=column in the functions you want to use on groups. The difference between group_by(column) and .by=column is that after group_by(column), the tibble stays grouped – so an ungroup() is needed to remove the grouping.

dt |> 
    group_by(signx)

#> # A tibble: 1,500 × 4
#> # Groups:   signx [2]
#>          x      y signx    signy   
#>      <dbl>  <dbl> <chr>    <chr>   
#>  1 -0.0716  0.242 negative positive
#>  2 -0.508   0.420 negative positive
#>  3  0.933   0.264 positive positive
#>  4 -0.844  -0.229 negative negative
#>  5  0.0115 -0.860 positive negative
#>  6 -0.283  -0.460 negative negative
#>  7  0.445  -0.232 positive negative
#>  8  0.572   0.701 positive positive
#>  9 -0.458  -0.229 negative negative
#> 10  0.302   0.306 positive positive
#> # ℹ 1,490 more rows
…
#> # A tibble: 4 × 5
#> # Groups:   signx [2]
#>   signx    signy    count mean_x mean_y
#>   <chr>    <chr>    <int>  <dbl>  <dbl>
#> 1 negative negative   386 -0.502 -0.492
#> 2 negative positive   367 -0.467  0.504
#> 3 positive negative   401  0.495 -0.503
#> 4 positive positive   346  0.513  0.501

6.5.5 Sorting

dt |> arrange(x)

#> # A tibble: 1,500 × 4
#>         x      y signx    signy   
#>     <dbl>  <dbl> <chr>    <chr>   
#>  1 -0.997 -0.137 negative negative
#>  2 -0.997  0.256 negative positive
#>  3 -0.997 -0.839 negative negative
#>  4 -0.996 -0.452 negative negative
#>  5 -0.996  0.124 negative positive
#>  6 -0.996 -0.408 negative negative
#>  7 -0.994  0.473 negative positive
#>  8 -0.994  0.520 negative positive
#>  9 -0.994 -0.708 negative negative
#> 10 -0.993 -0.161 negative negative
#> # ℹ 1,490 more rows

dt |> arrange(x, desc(y))

#> # A tibble: 1,500 × 4
#>         x      y signx    signy   
#>     <dbl>  <dbl> <chr>    <chr>   
#>  1 -0.997  0.256 negative positive
#>  2 -0.997 -0.137 negative negative
#>  3 -0.997 -0.839 negative negative
#>  4 -0.996  0.124 negative positive
#>  5 -0.996 -0.408 negative negative
#>  6 -0.996 -0.452 negative negative
#>  7 -0.994  0.520 negative positive
#>  8 -0.994  0.473 negative positive
#>  9 -0.994 -0.708 negative negative
#> 10 -0.993  0.536 negative positive
#> # ℹ 1,490 more rows
…
#> # A tibble: 4 × 3
#>   signx    signy    value
#>   <chr>    <chr>    <lgl>
#> 1 positive positive TRUE 
#> 2 positive negative FALSE
#> 3 negative positive FALSE
#> 4 negative negative TRUE

inner_join(dt, dt2)

#> # A tibble: 1,500 × 5
#>          x      y signx    signy    value
#>      <dbl>  <dbl> <chr>    <chr>    <lgl>
#>  1 -0.0716  0.242 negative positive FALSE
#>  2 -0.508   0.420 negative positive FALSE
#>  3  0.933   0.264 positive positive TRUE 
#>  4 -0.844  -0.229 negative negative TRUE 
#>  5  0.0115 -0.860 positive negative FALSE
#>  6 -0.283  -0.460 negative negative TRUE 
#>  7  0.445  -0.232 positive negative FALSE
#>  8  0.572   0.701 positive positive TRUE 
#>  9 -0.458  -0.229 negative negative TRUE 
#> 10  0.302   0.306 positive positive TRUE 
#> # ℹ 1,490 more rows
…
6.5.8 Add/modify a column

mutate(), like $, adds a column if it doesn’t exist, and modifies it if it does.

dt |> mutate(w=seq_along(x), z=sin(x))

#> # A tibble: 1,500 × 6
#>          x      y signx    signy        w       z
#>      <dbl>  <dbl> <chr>    <chr>    <int>   <dbl>
#>  1 -0.0716  0.242 negative positive     1 -0.0716
#>  2 -0.508   0.420 negative positive     2 -0.486 
#>  3  0.933   0.264 positive positive     3  0.803 
#>  4 -0.844  -0.229 negative negative     4 -0.747 
#>  5  0.0115 -0.860 positive negative     5  0.0115
#>  6 -0.283  -0.460 negative negative     6 -0.279 
#>  7  0.445  -0.232 positive negative     7  0.430 
#>  8  0.572   0.701 positive positive     8  0.542 
#>  9 -0.458  -0.229 negative negative     9 -0.442 
#> 10  0.302   0.306 positive positive    10  0.297 
#> # ℹ 1,490 more rows

dt |> mutate(x=seq_along(x))

#> # A tibble: 1,500 × 4
#>        x      y signx    signy   
#>    <int>  <dbl> <chr>    <chr>   
#>  1     1  0.242 negative positive
#>  2     2  0.420 negative positive
#>  3     3  0.264 positive positive
#>  4     4 -0.229 negative negative
#>  5     5 -0.860 positive negative
#>  6     6 -0.460 negative negative
#>  7     7 -0.232 positive negative
#>  8     8  0.701 positive positive
#>  9     9 -0.229 negative negative
#> 10    10  0.306 positive positive
#> # ℹ 1,490 more rows

6.5.9 Selecting columns

dt |> select(x)  # only x

#> # A tibble: 1,500 × 1
#>          x
#>      <dbl>
#>  1 -0.0716
#>  2 -0.508 
#>  3  0.933 
#>  4 -0.844 
#>  5  0.0115
#>  6 -0.283 
#>  7  0.445 
#>  8  0.572 
#>  9 -0.458 
#> 10  0.302 
#> # ℹ 1,490 more rows

dt |> select(-x) # all but x

#> # A tibble: 1,500 × 3
#>         y signx    signy   
#>     <dbl> <chr>    <chr>   
#>  1  0.242 negative positive
#>  2  0.420 negative positive
#>  3  0.264 positive positive
#>  4 -0.229 negative negative
#>  5 -0.860 positive negative
#>  6 -0.460 negative negative
#>  7 -0.232 positive negative
#>  8  0.701 positive positive
#>  9 -0.229 negative negative
#> 10  0.306 positive positive
#> # ℹ 1,490 more rows

dt |> select(starts_with("sign"))

#> # A tibble: 1,500 × 2
#>    signx    signy   
#>    <chr>    <chr>   
#>  1 negative positive
#>  2 negative positive
#>  3 positive positive
#>  4 negative negative
#>  5 positive negative
#>  6 negative negative
#>  7 positive negative
#>  8 positive positive
#>  9 negative negative
#> 10 positive positive
#> # ℹ 1,490 more rows

dt |> select(contains("x"))

#> # A tibble: 1,500 × 2
#>          x signx   
#>      <dbl> <chr>   
#>  1 -0.0716 negative
#>  2 -0.508  negative
#>  3  0.933  positive
#>  4 -0.844  negative
#>  5  0.0115 positive
#>  6 -0.283  negative
#>  7  0.445  positive
#>  8  0.572  positive
#>  9 -0.458  negative
#> 10  0.302  positive
#> # ℹ 1,490 more rows

6.5.10 Filtering columns

dt |> filter(signx=="positive")

#> # A tibble: 747 × 4
#>         x       y signx    signy   
#>     <dbl>   <dbl> <chr>    <chr>   
#>  1 0.933   0.264  positive positive
#>  2 0.0115 -0.860  positive negative
#>  3 0.445  -0.232  positive negative
#>  4 0.572   0.701  positive positive
#>  5 0.302   0.306  positive positive
#>  6 0.146  -0.747  positive negative
#>  7 0.635   0.457  positive positive
#>  8 0.0584 -0.0593 positive negative
#>  9 0.356  -0.997  positive negative
#> 10 0.0323 -0.739  positive negative
#> # ℹ 737 more rows

dt |> filter(x<0, y>.1) # multiple filters can be applied at once

#> # A tibble: 327 × 4
#>          x     y signx    signy   
#>      <dbl> <dbl> <chr>    <chr>   
#>  1 -0.0716 0.242 negative positive
#>  2 -0.508  0.420 negative positive
#>  3 -0.254  0.349 negative positive
#>  4 -0.234  0.908 negative positive
#>  5 -0.815  0.795 negative positive
#>  6 -0.558  0.556 negative positive
#>  7 -0.370  0.966 negative positive
#>  8 -0.0784 0.442 negative positive
#>  9 -0.213  0.376 negative positive
#> 10 -0.472  0.729 negative positive
#> # ℹ 317 more rows

6.5.11 Reorder columns

dt |> relocate(y, .after = signy)

#> # A tibble: 1,500 × 4
#>          x signx    signy         y
#>      <dbl> <chr>    <chr>     <dbl>
#>  1 -0.0716 negative positive  0.242
#>  2 -0.508  negative positive  0.420
#>  3  0.933  positive positive  0.264
#>  4 -0.844  negative negative -0.229
#>  5  0.0115 positive negative -0.860
#>  6 -0.283  negative negative -0.460
#>  7  0.445  positive negative -0.232
#>  8  0.572  positive positive  0.701
#>  9 -0.458  negative negative -0.229
#> 10  0.302  positive positive  0.306
#> # ℹ 1,490 more rows
…
#> # A tibble: 2 × 4
#>   a                b                 sumx  sumy
#>   <list>           <list>           <dbl> <dbl>
#> 1 <tibble [3 × 2]> <tibble [4 × 2]>    52    84
#> 2 <tibble [4 × 2]> <tibble [4 × 2]>     8   -40

6.5.14 Nesting and un-nesting data

dt7 <- dt6 |> 
    mutate(file = basename(file)) |> 
    unnest(data)
dt7

#> # A tibble: 5,075 × 3
#>    file             w   Int
#>    <chr>        <dbl> <dbl>
#>  1 rubis_01.txt 3064.  43.9
#>  2 rubis_01.txt 3064.  47.9
#>  3 rubis_01.txt 3064.  44.5
#>  4 rubis_01.txt 3065.  50.5
#>  5 rubis_01.txt 3065.  50.5
#>  6 rubis_01.txt 3065.  44.5
#>  7 rubis_01.txt 3065.  44.9
#>  8 rubis_01.txt 3066.  39.9
#>  9 rubis_01.txt 3066.  49.5
#> 10 rubis_01.txt 3066.  48.9
#> # ℹ 5,065 more rows
…
library(tidyverse)
d <- read_table("Data/ATG.txt", 
                skip    = 10,
                comment = "[") |> 
        drop_na()
d

#> # A tibble: 4,088 × 5
#>    Index     t    Ts    Tr Value
#>    <dbl> <dbl> <dbl> <dbl> <dbl>
#>  1     0     0  32.4    25  33.0
#>  2     3     3  32.4    25  33.0
#>  3     6     6  32.4    25  33.0
#>  4     9     9  32.5    25  33.0
#>  5    12    12  32.5    25  33.0
#>  6    15    15  32.5    25  33.0
#>  7    18    18  32.6    25  32.9
#>  8    21    21  32.6    25  32.9
#>  9    24    24  32.6    25  32.9
#> 10    27    27  32.7    25  32.9
#> # ℹ 4,078 more rows
…
popul.tidy <- popul |> 
    pivot_longer(cols=-year,
                 names_to = "city",
                 values_to = "pop"
                )
popul.tidy

#> # A tibble: 160 × 3
#>     year city         pop
#>    <dbl> <chr>      <dbl>
#>  1  1962 Angers    115273
#>  2  1962 Bordeaux  278403
#>  3  1962 Brest     136104
#>  4  1962 Dijon     135694
#>  5  1962 Grenoble  156707
#>  6  1962 LeHavre   187845
#>  7  1962 LeMans    132181
#>  8  1962 Lille     239955
#>  9  1962 Lyon      535746
#> 10  1962 Marseille 778071
#> # ℹ 150 more rows
…
