Reproducible data treatment with R - 10 Conditional actions and loops
…
[1]   16   19  -23  -56 -111

10.3.2 The tidyverse way

The package tidyverse offers numerous ways to avoid explicit for loops. To see how to do this, refer to the section on operations in the tidyverse.

10.4 Exercises

Exercise 1
Given x <- runif(1e3, min=-1, max=1), create a tibble like this one:

# A tibble: 1,000 × 2
         x y    
     <dbl> <chr>
 1 -0.737  x<=0 
 2  0.320  x>0  
 3 -0.741  x<=0 
 4  0.640  x>0  
 5  0.419  x>0  
 6  0.0679 x>0  
 7  0.783  x>0  
 8 -0.690  x<=0 
 9 -0.482  x<=0 
10 -0.375  x<=0 
# … with 990 more rows
…
