Reproducible data treatment with R - 12 3D color plots
…
12.1 The ggplot2 solution

Let’s create a dummy set of spectra that we will gather in a tidy tibble.

library(tidyverse)
Nspec <- 40                           # Amount of spectra
N     <- 500                          # Size of the x vector
# Create a fake data tibble
fake_data <- tibble(T = round(seq(273, 500, length=Nspec), 1)) |> 
    mutate(spec = map(T, ~tibble(w = seq(0, 100, length = N),
                         Intensity = 50*dnorm(w, mean = (./T[1])*20 + 25, 
                                                  sd  = 10+runif(1,max=5)))))
fake_data

#> # A tibble: 40 × 2
#>        T spec              
#>    <dbl> <list>            
#>  1  273  <tibble [500 × 2]>
#>  2  279. <tibble [500 × 2]>
#>  3  285. <tibble [500 × 2]>
#>  4  290. <tibble [500 × 2]>
#>  5  296. <tibble [500 × 2]>
#>  6  302. <tibble [500 × 2]>
#>  7  308. <tibble [500 × 2]>
#>  8  314. <tibble [500 × 2]>
#>  9  320. <tibble [500 × 2]>
#> 10  325. <tibble [500 × 2]>
#> # ℹ 30 more rows

fake_data <- fake_data |> unnest(spec)
fake_data

#> # A tibble: 20,000 × 3
#>        T     w Intensity
#>    <dbl> <dbl>     <dbl>
#>  1   273 0        0.0112
#>  2   273 0.200    0.0117
#>  3   273 0.401    0.0122
#>  4   273 0.601    0.0127
#>  5   273 0.802    0.0133
#>  6   273 1.00     0.0139
#>  7   273 1.20     0.0144
#>  8   273 1.40     0.0151
#>  9   273 1.60     0.0157
#> 10   273 1.80     0.0164
#> # ℹ 19,990 more rows
…
