Reproducible data treatment with R - 16 Working with units and experimental errors
…
#> Units: [m]
#>  [1]  1  2  3  4  5  6  7  8  9 10

set_units(1:10, units(T), mode="standard")

#> Units: [ns]
#>  [1]  1  2  3  4  5  6  7  8  9 10

You can give units to table columns:

library(tidyverse)
starwars

#> # A tibble: 87 × 14
#>    name     height  mass hair_color skin_color eye_color birth_year sex   gender
#>    <chr>     <int> <dbl> <chr>      <chr>      <chr>          <dbl> <chr> <chr> 
#>  1 Luke Sk…    172    77 blond      fair       blue            19   male  mascu…
#>  2 C-3PO       167    75 <NA>       gold       yellow         112   none  mascu…
#>  3 R2-D2        96    32 <NA>       white, bl… red             33   none  mascu…
#>  4 Darth V…    202   136 none       white      yellow          41.9 male  mascu…
#>  5 Leia Or…    150    49 brown      light      brown           19   fema… femin…
#>  6 Owen La…    178   120 brown, gr… light      blue            52   male  mascu…
#>  7 Beru Wh…    165    75 brown      light      blue            47   fema… femin…
#>  8 R5-D4        97    32 <NA>       white, red red             NA   none  mascu…
#>  9 Biggs D…    183    84 black      light      brown           24   male  mascu…
#> 10 Obi-Wan…    182    77 auburn, w… fair       blue-gray       57   male  mascu…
#> # ℹ 77 more rows
#> # ℹ 5 more variables: homeworld <chr>, species <chr>, films <list>,
#> #   vehicles <list>, starships <list>

starwars %>% 
    mutate(height = set_units(height,"cm"),
           mass   = set_units(mass,"kg"))

#> # A tibble: 87 × 14
#>    name     height mass hair_color  skin_color eye_color birth_year sex   gender
#>    <chr>      [cm] [kg] <chr>       <chr>      <chr>          <dbl> <chr> <chr> 
#>  1 Luke Sk…    172   77 blond       fair       blue            19   male  mascu…
#>  2 C-3PO       167   75 <NA>        gold       yellow         112   none  mascu…
#>  3 R2-D2        96   32 <NA>        white, bl… red             33   none  mascu…
#>  4 Darth V…    202  136 none        white      yellow          41.9 male  mascu…
#>  5 Leia Or…    150   49 brown       light      brown           19   fema… femin…
#>  6 Owen La…    178  120 brown, grey light      blue            52   male  mascu…
#>  7 Beru Wh…    165   75 brown       light      blue            47   fema… femin…
#>  8 R5-D4        97   32 <NA>        white, red red             NA   none  mascu…
#>  9 Biggs D…    183   84 black       light      brown           24   male  mascu…
#> 10 Obi-Wan…    182   77 auburn, wh… fair       blue-gray       57   male  mascu…
#> # ℹ 77 more rows
#> # ℹ 5 more variables: homeworld <chr>, species <chr>, films <list>,
#> #   vehicles <list>, starships <list>
…
errors_max(a)

#> [1] 1.1

It thus becomes easy to plot the error bars from your experimental data. I recommend using the ggforce library to make ggplot2 work better with quantities:

library(ggforce)
options(errors.notation="parenthesis", errors.digits=1)
starwars %>% 
    mutate(height=set_quantities(height,"cm",height*.05),
           mass=set_quantities(mass,"kg",mass*.05)
           )

#> # A tibble: 87 × 14
#>    name         height     mass hair_color skin_color eye_color birth_year sex  
#>    <chr>      (err) [… (err) [… <chr>      <chr>      <chr>          <dbl> <chr>
#>  1 Luke Skyw…   172(9)    77(4) blond      fair       blue            19   male 
#>  2 C-3PO        167(8)    75(4) <NA>       gold       yellow         112   none 
#>  3 R2-D2         96(5)    32(2) <NA>       white, bl… red             33   none 
#>  4 Darth Vad…  200(10)   136(7) none       white      yellow          41.9 male 
#>  5 Leia Orga…   150(8)    49(2) brown      light      brown           19   fema…
#>  6 Owen Lars    178(9)   120(6) brown, gr… light      blue            52   male 
#>  7 Beru Whit…   165(8)    75(4) brown      light      blue            47   fema…
#>  8 R5-D4         97(5)    32(2) <NA>       white, red red             NA   none 
#>  9 Biggs Dar…   183(9)    84(4) black      light      brown           24   male 
#> 10 Obi-Wan K…   182(9)    77(4) auburn, w… fair       blue-gray       57   male 
#> # ℹ 77 more rows
#> # ℹ 6 more variables: gender <chr>, homeworld <chr>, species <chr>,
#> #   films <list>, vehicles <list>, starships <list>
…
